{
  "name": "artel",
  "scopeName": "source.artel",
  "embeddedLanguages": {
    "meta.embedded.block.artel": "artel",
    "meta.embedded.block.nzon": "nzon"
  },
  "patterns": [
    {
      "begin": "(nzon|опись)\\[\\[",
      "beginCaptures": {
        "0": {
          "name": "keyword"
        }
      },
      "end": "\\]\\]",
      "endCaptures": {
        "0": {
          "name": "keyword"
        }
      },
      "patterns": [
				{
					"begin": "(^|\\G)(\\s*)(.*)",
					"while": "(^|\\G)(?!\\s*(}}}|]])\\s*$)",
					"contentName": "meta.embedded.block.nzon",
					"patterns": [
						{
							"include": "source.nzon"
						}
					]
				}
      ]
    },
    {
      "begin": "\"",
      "beginCaptures": {
        "0": {
          "name": "punctuation"
        }
      },
      "end": "(?<!\\\\)\"",
      "endCaptures": {
        "0": {
          "name": "punctuation"
        }
      },
      "name": "string",
      "patterns": [
        {
          "begin": "(?<!\\\\){",
          "beginCaptures": {
            "0": {
              "name": "keyword"
            }
          },
          "end": "(?<!\\\\)}",
          "endCaptures": {
            "0": {
              "name": "keyword"
            }
          },
					"contentName": "meta.embedded.block.artel",
					"patterns": [
						{
							"include": "source.artel"
						}
					]
        }
      ]
    },
    {
      "begin": "'",
      "beginCaptures": {
        "0": {
          "name": "punctuation"
        }
      },
      "end": "\n",
      "endCaptures": {
        "0": {
          "name": "punctuation"
        }
      },
      "name": "string",
      "patterns": [
        {
          "begin": "(?<!\\\\){",
          "beginCaptures": {
            "0": {
              "name": "keyword"
            }
          },
          "end": "(?<!\\\\)}",
          "endCaptures": {
            "0": {
              "name": "keyword"
            }
          },
					"contentName": "meta.embedded.block.artel",
					"patterns": [
						{
							"include": "source.artel"
						}
					]
        }
      ]
    },
    {
      "begin": "//",
      "end": "\n",
      "name": "comment"
    },
    {
      "begin": "/\\*",
      "end": "\\*/",
      "name": "comment"
    },
    {
      "captures": {
        "0": {"name": "keyword"}
      },
      "match": "#[a-zA-Zа-яА-ЯЁё0-9·_\\-.]+(\\(.*\\))?"
    },
    {
      "captures": {
        "1": {
          "name": "keyword"
        },
        "4": {
          "name": "entity.name.function"
        },
        "7": {
          "name": "entity.name.type"
        }
      },
      "match": "(fn(\\s+set)?)\\s+(([a-zA-Z0-9·._\\-]+)((<)([a-zA-Z0-9·_\\-\\s,]*)(>))?)"
    },
    {
      "captures": {
        "0": {
          "name": "keyword"
        }
      },
      "match": "\\{{|}}|=>|->|--|<=|>=|==|!=|\/=|##|=|\\+|\\*|\\/|@|\\[|\\]|\\?|\\."
    },
    {
      "captures": {
        "0": {
          "name": "keyword"
        }
      },
      "match": "\\b(?<!-)(using(\\s+(artel|nested))?|использ(овать|уем|у(е|ю)тся|уя)(\\s+(артель|вложенн(ый|ая|ое|ые|о)))?|with|над|let|пусть|((embedded|keyword)\\s+)?operation|((встроенная|ключевая)\\s+)?операци(я|и)|type|тип(а|ы)?|amendment\\s+to\\s+type|дополнение\\s+к\\s+типу|aliases|псевдонимы|from|из|run|выполн(ить|ять|яем|яет)|params?|параметры?|if|если|then|тогда|else|иначе|is|это|or|или|and|и\\s+|not|не(\\s+отслеживая)?|for each|each of|continue cycle|break cycle|for|для каждо(го|й)|для|каждый из|продолжить\\s+цикл|прервать\\s+цикл|while|пока|as|как|error|ошибк(а|е|и)|await|finally|дождаться|напоследок|former|прежн(ий|яя|ие|ее)|return|вернуть(ся)?|возврат|yield|выда(ть|ча)|on\\s+error|при\\s+ошибке|on\\s+cancel|при\\s+отмене|on\\s+get|при\\s+чтении|on\\s+set|при\\s+записи|on\\s+create|при\\s+создании|on\\s+recompute|при\\s+(пере|ра)сч(ё|е)те|override|подмена|immutable|неизменн(ый|ая|ое|ые|о)|(не)?подменяемая|computed|вычислим(ый|ая|ое|ые|о)|(не)?подписн(ой|ая|ое|ые)|подписка|неподписываясь|(non-)?automatic|(не)?автоматическ(ий|ая|ое|ие|и)|observable|reactiv(e|ity)|(реактивн|наблюдаем)(ый|ая|ое|ые|о|ость)|observ(er|ation)|наблюд(атель|ение|ения)|nonreactive|нереактивн(ый|ая|ое|ые|о)|ненаблюдаем(ый|ая|ое|ые|о)|unobservable|atomic|transaction(al)?|транзакци(я|онный|онная|онное|онные|онно)|атомарн(ый|ая|ое|ые|о)|согласованн(ый|ая|ое|ые|о)|external|внешн(ий|яя|ее|ие)|нездешн(ий|яя|ее|ие)|сторонн(ий|яя|ее|ие)|common|общ(ий|ая|ее|ие)|result|результат|stored|храним(ый|ая|ое|ые|о)|interface|интерфейс|object|base|based\\s+on|объект(а|ный)?|основа|на\\s+основе|this|данный|tuple|набора?|когда|on|switch|выбор|check|проверить|cases?|вариант(а|ный|ы)?|either|when|либо|ref(\\s+to)?|ссылка(\\s+на)?|empty|пусто|private|скрыт(ый|ая|ое|о|ые)|readonly|читаем(ый|ая|ое|о|ые)|parallel|параллельн(ый|ая|ое|ые|о)|calls|выз(ывает|вать)|вх|исх|под\\s+именем|с\\s+префиксом|в\\s+виде)(?!-)\\b"
    },
    {
      "captures": {
        "0": {
          "name": "entity.name.type"
        }
      },
      "match": "\\b[A-ZА-ЯЁ][a-zA-Zа-яА-яЁё0-9·_\\-]*\\b"
    },
    {
      "captures": {
        "0": {
          "name": "string"
        }
      },
      "match": "\\b-?[0-9_]+(\\.[0-9_]+)?([eе][0-9]+)?(%|₽|\\$|([a-zA-Zа-яА-яЁё]+)?\\b)"
    },
    {
      "captures": {
        "0": {
          "name": "punctuation"
        }
      },
      "match": "[,;:(){}]"
    },
    {
      "captures": {
        "1": {
          "name": "entity.name.function"
        },
        "2": {
          "name": "keyword"
        },
        "4": {
          "name": "entity.name.type"
        },
        "6": {
          "name": "punctuation"
        }
      },
      "match": "([a-zA-Zа-яА-яЁё0-9·_\\-]+)((\\[|<)([a-zA-Zа-яА-яЁё0-9·_\\-\\s,:=]*)(\\]|>)?)?[+!*^]?(?=\\()"
    },
    {
      "captures": {
        "1": {
          "name": "keyword"
        },
        "2": {
          "name": "keyword"
        },
        "4": {
          "name": "entity.name.type"
        },
        "6": {
          "name": "punctuation"
        }
      },
      "match": " ([a-zA-Zа-яА-яЁё0-9·_\\-]+)((\\[|<)([a-zA-Zа-яА-яЁё0-9·_\\-\\s,:=]*)(\\]|>)?)?[+!*^]?"
    }
  ]
}
