{
  "name": "NLOG",
  "scopeName": "source.nlog",
  "patterns": [
    {
      "captures": {
        "1": {"name": "punctuation"}
      },
      "match": "\\|(\\s.*)\\|"
    },


    {
      "captures": {
        "0": {"name": "punctuation"}
      },
      "match": "^[^|]*"
    },


    {
      "captures": {
        "1": {"name": "nlog.text.0"}
      },
      "match": "(\\s@@[A-Za-z0-9]*0.*)$"
    },
    {
      "captures": {
        "1": {"name": "nlog.text.1"}
      },
      "match": "(\\s@@[A-Za-z0-9]*1.*)$"
    },
    {
      "captures": {
        "1": {"name": "nlog.text.2"}
      },
      "match": "(\\s@@[A-Za-z0-9]*2.*)$"
    },
    {
      "captures": {
        "1": {"name": "nlog.text.3"}
      },
      "match": "(\\s@@[A-Za-z0-9]*3.*)$"
    },


    {
      "captures": {
        "1": {"name": "nlog.id.0"},
        "2": {"name": "nlog.id.0"}
      },
      "match": "\\|(\\S{21}[a-h])\\|([A-Za-z0-9]*\\s+\\[[A-Za-z0-9]*@[A-Za-z0-9]*\\])?"
    },
    {
      "captures": {
        "1": {"name": "nlog.id.1"},
        "2": {"name": "nlog.id.1"}
      },
      "match": "\\|(\\S{21}[i-p])\\|([A-Za-z0-9]*\\s+\\[[A-Za-z0-9]*@[A-Za-z0-9]*\\])?"
    },
    {
      "captures": {
        "1": {"name": "nlog.id.2"},
        "2": {"name": "nlog.id.2"}
      },
      "match": "\\|(\\S{21}[q-x])\\|([A-Za-z0-9]*\\s+\\[[A-Za-z0-9]*@[A-Za-z0-9]*\\])?"
    },
    {
      "captures": {
        "1": {"name": "nlog.id.3"},
        "2": {"name": "nlog.id.3"}
      },
      "match": "\\|(\\S{21}y-z])\\|([A-Za-z0-9]*\\s+\\[[A-Za-z0-9]*@[A-Za-z0-9]*\\])?"
    },
    {
      "captures": {
        "1": {"name": "nlog.id.4"},
        "2": {"name": "nlog.id.4"}
      },
      "match": "\\|(\\S{21}[A-H])\\|([A-Za-z0-9]*\\s+\\[[A-Za-z0-9]*@[A-Za-z0-9]*\\])?"
    },
    {
      "captures": {
        "1": {"name": "nlog.id.5"},
        "2": {"name": "nlog.id.5"}
      },
      "match": "\\|(\\S{21}[I-P])\\|([A-Za-z0-9]*\\s+\\[[A-Za-z0-9]*@[A-Za-z0-9]*\\])?"
    },
    {
      "captures": {
        "1": {"name": "nlog.id.6"},
        "2": {"name": "nlog.id.6"}
      },
      "match": "\\|(\\S{21}[Q-X])\\|([A-Za-z0-9]*\\s+\\[[A-Za-z0-9]*@[A-Za-z0-9]*\\])?"
    },
    {
      "captures": {
        "1": {"name": "nlog.id.7"},
        "2": {"name": "nlog.id.7"}
      },
      "match": "\\|(\\S{21}[Y-Z])\\|([A-Za-z0-9]*\\s+\\[[A-Za-z0-9]*@[A-Za-z0-9]*\\])?"
    }
  ]
}
