{
  "scopeName": "reactronic.front.injection",
  "injectionSelector": "L:meta.function-call",
  "patterns": [
    {
      "captures": {
        "1": {"name": "entity.name.type"}
      },
      "match": "\\b([A-Z][A-Za-z]*)\\b"
    }
  ]
}
