{
	
	"type": "dark",
	"colors": {
		"titleBar.activeBackground": "#011C2C",
		"titleBar.inactiveBackground": "#011C2C",
		"menu.background": "#03263e",
		"menu.separatorBackground": "#777777bb",
		"panel.background": "#03263e",
		"sideBar.background": "#011C2C",
		"sideBarSectionHeader.background": "#011C2C",
		"sideBarSectionHeader.border": "#777777bb",
		"editor.background": "#03263e",
		"editor.foreground": "#f0f0f0",
		"editor.inactiveSelectionBackground": "#3a3d41",
		"editor.selectionHighlightBackground": "#add6ff26",
		"editorIndentGuide.background": "#404040",
		"editorGroupHeader.tabsBackground": "#011C2C",
		"editorCodeLens.foreground": "#808090",
		"editorUnnecessaryCode.opacity": "#00000060",
		"tab.border": "#00000060",
		"tab.activeBorderTop": "#ffffff",
		"tab.activeBackground": "#03263e",
		"tab.activeForeground": "#ffffff",
		"tab.inactiveBackground": "#011C2C",
		"editorWidget.background": "#03263e",
		"editorWidget.border": "#03263e",
		"editorSuggestWidget.background": "#011C2C",
		"editorHoverWidget.background": "#011C2C",
		"activityBar.background": "#011C2C",
		"activityBarBadge.background": "#ee4444",
		"activityBarBadge.foreground": "#ffffff",
		"statusBar.background": "#011C2C",
		"statusBar.foreground": "#ffffff88",
		"list.dropBackground": "#383b3d",
		"list.focusBackground": "#007acc",
		"list.focusForeground": "#ffffff",
		"list.activeSelectionBackground": "#009aecff",
		"list.activeSelectionForeground": "#ffffff",
		"list.inactiveSelectionBackground": "#009aec55",
		"list.inactiveSelectionForeground": "#ffffff",
		"list.hoverBackground": "#ffffff11",
		"list.hoverForeground": "#ffffff",
		"input.background": "#203d55",
		"dropdown.background": "#203d55",
		"badge.background": "#ffffff33",
		"badge.foreground": "#ffffffff",
		"gitDecoration.addedResourceForeground": "#00dd00",
		"gitDecoration.modifiedResourceForeground": "#dddd00",
		"gitDecoration.untrackedResourceForeground": "#00dd00",
		"gitDecoration.deletedResourceForeground": "#ee4444",
		"gitDecoration.conflictingResourceForeground": "#ee4444",
		"debugToolBar.background": "#03263e",
		"debugToolBar.border": "#00dd00"
	},
	"tokenColors": [
		{
			"scope": [
				"meta.embedded",
				"source.groovy.embedded"
			],
			"settings": {
				"foreground": "#d0d0d0"
			}
		},
		{
			"scope": "emphasis",
			"settings": {
				"fontStyle": "italic"
			}
		},
		{
			"scope": "strong",
			"settings": {
				"fontStyle": "bold"
			}
		},
		{
			"scope": "header",
			"settings": {
				"foreground": "#000080"
			}
		},
		{
			"scope": "comment",
			"settings": {
				"foreground": "#608b4e"
			}
		},
		{
			"scope": "entity.name.tag",
			"settings": {
				"foreground": "#86ccf6"
			}
		},
		{
			"scope": "entity.name.tag.css",
			"settings": {
				"foreground": "#5ef9c0"
			}
		},
		{
			"scope": "entity.other.attribute-name",
			"settings": {
				"foreground": "#ffc0c0",
				"fontStyle": ""
			}
		},
		{
			"scope": [
				"entity.other.attribute-name.class.css",
				"entity.other.attribute-name.class.mixin.css",
				"entity.other.attribute-name.id.css",
				"entity.other.attribute-name.parent-selector.css",
				"entity.other.attribute-name.pseudo-class.css",
				"entity.other.attribute-name.pseudo-element.css",
				"source.css.less entity.other.attribute-name.id",
				"entity.other.attribute-name.attribute.scss",
				"entity.other.attribute-name.scss"
			],
			"settings": {
				"foreground": "#5ef9c0"
			}
		},
		{
			"scope": "invalid",
			"settings": {
				"foreground": "#f44747"
			}
		},
		{
			"scope": "markup.underline",
			"settings": {
				"fontStyle": "underline"
			}
		},
		{
			"scope": "markup.bold",
			"settings": {
				"fontStyle": "bold",
				"foreground": "#ffffa0"
			}
		},
		{
			"scope": "markup.heading",
			"settings": {
				"fontStyle": "bold",
				"foreground": "#5df586"
			}
		},
		{
			"scope": "markup.italic",
			"settings": {
				"fontStyle": "italic"
			}
		},
		{
			"scope": "markup.inserted",
			"settings": {
				"foreground": "#b5cea8"
			}
		},
		{
			"scope": "markup.deleted",
			"settings": {
				"foreground": "#ce9178"
			}
		},
		{
			"scope": "markup.changed",
			"settings": {
				"foreground": "#86ccf6"
			}
		},
		{
			"scope": "beginning.punctuation.definition.quote.markdown",
			"settings": {
				"foreground": "#608b4e"
			}
		},
		{
			"scope": "beginning.punctuation.definition.list.markdown",
			"settings": {
				"foreground": "#6796e6"
			}
		},
		{
			"scope": "punctuation.definition.markdown",
			"settings": {
				"foreground": "#707080"
			}
		},
		{
			"scope": "markup.inline.raw",
			"settings": {
				"foreground": "#ffc0c0",
				"fontStyle": "italic"
			}
		},
		{
			"scope": "meta.selector",
			"settings": {
				"foreground": "#d7ba7d"
			}
		},
		{
			"name": "brackets of XML/HTML tags",
			"scope": "punctuation.definition.tag",
			"settings": {
				"foreground": "#86ccf6"
			}
		},
		{
			"scope": "meta.preprocessor",
			"settings": {
				"foreground": "#86ccf6"
			}
		},
		{
			"scope": "meta.preprocessor.string",
			"settings": {
				"foreground": "#ce9178"
			}
		},
		{
			"scope": "meta.preprocessor.numeric",
			"settings": {
				"foreground": "#b5cea8"
			}
		},
		{
			"scope": "meta.structure.dictionary.key.python",
			"settings": {
				"foreground": "#9cdcfe"
			}
		},
		{
			"scope": "meta.diff.header",
			"settings": {
				"foreground": "#86ccf6"
			}
		},
		{
			"scope": "storage",
			"settings": {
				"foreground": "#86ccf6"
			}
		},
		{
			"scope": "storage.type",
			"settings": {
				"foreground": "#86ccf6"
			}
		},
		{
			"scope": "storage.modifier",
			"settings": {
				"foreground": "#86ccf6"
			}
		},
		{
			"scope": "string",
			"settings": {
				"foreground": "#ce9178"
			}
		},
		{
			"scope": "string.tag",
			"settings": {
				"foreground": "#ce9178"
			}
		},
		{
			"scope": "string.value",
			"settings": {
				"foreground": "#ce9178"
			}
		},
		{
			"scope": "string.regexp",
			"settings": {
				"foreground": "#d16969"
			}
		},
		{
			"name": "String interpolation",
			"scope": [
				"punctuation.definition.template-expression.begin",
				"punctuation.definition.template-expression.end",
				"punctuation.section.embedded"
			],
			"settings": {
				"foreground": "#86ccf6"
			}
		},
		{
			"name": "Reset JavaScript string interpolation expression",
			"scope": [
				"meta.template.expression",
				"meta.interpolation.cs"
			],
			"settings": {
				"foreground": "#b0b0b0"
			}
		},
		{
			"scope": [
				"support.type.vendored.property-name",
				"support.type.property-name",
				"variable.css",
				"variable.scss",
				"variable.other.less",
				"source.coffee.embedded"
			],
			"settings": {
				"foreground": "#ffffa0",
				"fontStyle": ""
			}
		},
		{
			"scope": "keyword",
			"settings": {
				"foreground": "#86ccf6"
			}
		},
		{
			"scope": "keyword.control",
			"settings": {
				"foreground": "#86ccf6"
			}
		},
		{
			"scope": "keyword.operator",
			"settings": {
				"foreground": "#d0d0d0"
			}
		},
		{
			"scope": [
				"keyword.operator.new",
				"keyword.operator.expression",
				"keyword.operator.cast",
				"keyword.operator.sizeof",
				"keyword.operator.logical.python"
			],
			"settings": {
				"foreground": "#86ccf6"
			}
		},
		{
			"scope": "keyword.other.unit",
			"settings": {
				"foreground": "#ffc0c0"
			}
		},
		{
			"scope": [
				"punctuation.section.embedded.begin.php",
				"punctuation.section.embedded.end.php"
			],
			"settings": {
				"foreground": "#86ccf6"
			}
		},
		{
			"scope": "support.function.git-rebase",
			"settings": {
				"foreground": "#9cdcfe"
			}
		},
		{
			"scope": "constant.sha.git-rebase",
			"settings": {
				"foreground": "#b5cea8"
			}
		},
		{
			"name": "coloring of the Java import and package identifiers",
			"scope": [
				"storage.modifier.import.java",
				"variable.language.wildcard.java",
				"storage.modifier.package.java"
			],
			"settings": {
				"foreground": "#d0d0d0"
			}
		},
		{
			"name": "this.self",
			"scope": "variable.language",
			"settings": {
				"foreground": "#86ccf6"
			}
		},
		{
			"scope": "string",
			"settings": {
				"foreground": "#ffc0c0"
			}
		},
		{
			"scope": "constant.numeric",
			"settings": {
				"foreground": "#ffc0c0"
			}
		},
		{
			"scope": "constant.language",
			"settings": {
				"foreground": "#ffc0c0"
			}
		},
		{
			"scope": "constant.regexp",
			"settings": {
				"foreground": "#646695"
			}
		},
		{
			"scope": "comment",
			"settings": {
				"foreground": "#808090",
				"fontStyle": "italic"
			}
		},
		{
			"scope": "punctuation",
			"settings": {
				"foreground": "#547289"
			}
		},
		{
			"name": "Function declarations",
			"scope": [
				"entity.name.function",
				"support.function",
				"support.constant.handlebars"
			],
			"settings": {
				"foreground": "#ffffa0"
			}
		},
		{
			"name": "Types declaration and references",
			"scope": [
				"meta.return-type",
				"support.class",
				"support.type",
				"entity.name.type",
				"entity.name.class",
				"storage.type.cs",
				"storage.type.generic.cs",
				"storage.type.modifier.cs",
				"storage.type.variable.cs",
				"storage.type.annotation.java",
				"storage.type.generic.java",
				"storage.type.java",
				"storage.type.object.array.java",
				"storage.type.primitive.array.java",
				"storage.type.primitive.java",
				"storage.type.token.java",
				"storage.type.groovy",
				"storage.type.annotation.groovy",
				"storage.type.parameters.groovy",
				"storage.type.generic.groovy",
				"storage.type.object.array.groovy",
				"storage.type.primitive.array.groovy",
				"storage.type.primitive.groovy"
			],
			"settings": {
				"foreground": "#5ef9c0"
			}
		},
		{
			"name": "Types declaration and references, TS grammar specific",
			"scope": [
				"meta.return.type",
				"meta.type.cast.expr",
				"meta.type.new.expr",
				"support.constant.math",
				"support.constant.dom",
				"support.constant.json",
				"entity.other.inherited-class"
			],
			"settings": {
				"foreground": "#5ef9c0"
			}
		},
		{
			"scope": "token.info-token",
			"settings": {
				"foreground": "#6796e6"
			}
		},
		{
			"scope": "token.warn-token",
			"settings": {
				"foreground": "#cd9731"
			}
		},
		{
			"scope": "token.error-token",
			"settings": {
				"foreground": "#f44747"
			}
		},
		{
			"scope": "token.debug-token",
			"settings": {
				"foreground": "#b267e6"
			}
		},
		{
			"scope": [
				"meta.decorator.js",
				"meta.decorator.js entity.name.function",
				"meta.decorator.jsx",
				"meta.decorator.jsx entity.name.function",
				"meta.decorator.ts",
				"meta.decorator.ts entity.name.function",
				"meta.decorator.tsx",
				"meta.decorator.tsx entity.name.function"],
			"settings": {
				"fontStyle": "italic",
				"foreground": "#ffc0c0"
			}
		},
		{
			"scope": [
				"punctuation.terminator.statement",
				"punctuation.accessor",
				"keyword.operator.type.annotation"],
			"settings": {
				"foreground": "#606070"
			}
		},
		{
			"scope": ["nlog.id.0"],
			"settings": {
				"foreground": "#f05455",
				"fontStyle": "italic"
			}
		},
		{
			"scope": ["nlog.id.1"],
			"settings": {
				"foreground": "#ea3838",
				"fontStyle": "italic"
			}
		},
		{
			"scope": ["nlog.id.2"],
			"settings": {
				"foreground": "#e64d3d",
				"fontStyle": "italic"
			}
		},
		{
			"scope": ["nlog.id.3"],
			"settings": {
				"foreground": "#d35501",
				"fontStyle": "italic"
			}
		},
		{
			"scope": ["nlog.id.4"],
			"settings": {
				"foreground": "#f05455",
				"fontStyle": "italic"
			}
		},
		{
			"scope": ["nlog.id.5"],
			"settings": {
				"foreground": "#ea3838",
				"fontStyle": "italic"
			}
		},
		{
			"scope": ["nlog.id.6"],
			"settings": {
				"foreground": "#e64d3d",
				"fontStyle": "italic"
			}
		},
		{
			"scope": ["nlog.id.7"],
			"settings": {
				"foreground": "#d35501",
				"fontStyle": "italic"
			}
		},
		{
			"scope": ["nlog.text.0"],
			"settings": {
				"foreground": "#2fcc71"
			}
		},
		{
			"scope": ["nlog.text.1"],
			"settings": {
				"foreground": "#ece05a"
			}
		},
		{
			"scope": ["nlog.text.2"],
			"settings": {
				"foreground": "#79c9d0"
			}
		},
		{
			"scope": ["nlog.text.3"],
			"settings": {
				"foreground": "#e67f23"
			}
		}
	]
}
